{
    "openapi": "3.0.0",
    "info": {
        "title": "Api seedbox",
        "version": "1.0.0"
    },
    "paths": {
        "/servers": {
            "get": {
                "summary": "show server details",
                "description": "show server details",
                "operationId": "App\\Http\\Controllers\\ApiController::index",
                "responses": {
                    "200": {
                        "description": "Success",
                        "content": {
                            "application/json": {
                                "schema": {
                                    "properties": {
                                        "data": {
                                            "type": "object",
                                            "$ref": ""
                                        }
                                    },
                                    "type": "object"
                                }
                            }
                        }
                    },
                    "401": {
                        "description": "User should be authorized to get profile information",
                        "content": {
                            "application/json": {
                                "schema": {
                                    "properties": {
                                        "message": {
                                            "type": "string",
                                            "example": "Not authorized"
                                        }
                                    },
                                    "type": "object"
                                }
                            }
                        }
                    }
                }
            },
            "post": {
                "summary": "store a new server",
                "description": "store a new server",
                "operationId": "App\\Http\\Controllers\\ApiController::store",
                "parameters": [
                    {
                        "name": "hostname",
                        "in": "path",
                        "description": "the hostname of the server",
                        "required": true,
                        "example": "Server001"
                    },
                    {
                        "name": "Ip",
                        "in": "path",
                        "description": "Ip address of the server",
                        "required": true,
                        "example": "192.168.52.2"
                    },
                    {
                        "name": "zone",
                        "in": "path",
                        "description": "Zone where the server will be configured",
                        "required": true,
                        "example": "EXT"
                    }
                ],
                "responses": {
                    "200": {
                        "description": "Success",
                        "content": {
                            "application/json": {
                                "schema": {
                                    "properties": {
                                        "id": {
                                            "type": "integer",
                                            "example": "1"
                                        },
                                        "hostname": {
                                            "type": "string",
                                            "example": "Linux52"
                                        },
                                        "ip": {
                                            "type": "string",
                                            "example": "192.168.2.52"
                                        },
                                        "zone": {
                                            "type": "string",
                                            "example": "DMZ"
                                        }
                                    },
                                    "type": "object"
                                }
                            }
                        }
                    },
                    "404": {
                        "description": "User should provide a correct server details",
                        "content": {
                            "application/json": {
                                "schema": {
                                    "properties": {
                                        "message": {
                                            "type": "string",
                                            "example": "at least one parameter is not correct"
                                        }
                                    },
                                    "type": "object"
                                }
                            }
                        }
                    }
                }
            }
        },
        "/servers/{Id}": {
            "get": {
                "summary": "show server details",
                "description": "show server details",
                "operationId": "App\\Http\\Controllers\\ApiController::show",
                "responses": {
                    "200": {
                        "description": "Success",
                        "content": {
                            "application/json": {
                                "schema": {
                                    "properties": {
                                        "data": {
                                            "type": "object",
                                            "$ref": ""
                                        }
                                    },
                                    "type": "object"
                                }
                            }
                        }
                    },
                    "401": {
                        "description": "User should be authorized to get profile information",
                        "content": {
                            "application/json": {
                                "schema": {
                                    "properties": {
                                        "message": {
                                            "type": "string",
                                            "example": "Not authorized"
                                        }
                                    },
                                    "type": "object"
                                }
                            }
                        }
                    }
                }
            },
            "delete": {
                "summary": "Delete an existing server",
                "description": "Delete an existing server",
                "operationId": "App\\Http\\Controllers\\ApiController::delete",
                "responses": {
                    "200": {
                        "description": "Success",
                        "content": {
                            "application/json": {
                                "schema": {
                                    "properties": {
                                        "id": {
                                            "type": "integer",
                                            "example": "1"
                                        },
                                        "hostname": {
                                            "type": "string",
                                            "example": "Linux52"
                                        },
                                        "ip": {
                                            "type": "string",
                                            "example": "192.168.2.52"
                                        },
                                        "zone": {
                                            "type": "string",
                                            "example": "DMZ"
                                        }
                                    },
                                    "type": "object"
                                }
                            }
                        }
                    },
                    "401": {
                        "description": "User should provide a correct server Id",
                        "content": {
                            "application/json": {
                                "schema": {
                                    "properties": {
                                        "message": {
                                            "type": "string",
                                            "example": "the server id is not found"
                                        }
                                    },
                                    "type": "object"
                                }
                            }
                        }
                    }
                }
            }
        },
        "/servers/{id}": {
            "put": {
                "summary": "update an existing server",
                "description": "update an existing server",
                "operationId": "App\\Http\\Controllers\\ApiController::update",
                "parameters": [
                    {
                        "name": "hostname",
                        "in": "path",
                        "description": "the hostname of the server",
                        "required": true,
                        "example": "Server001"
                    },
                    {
                        "name": "Ip",
                        "in": "path",
                        "description": "Ip address of the server",
                        "required": true,
                        "example": "192.168.52.2"
                    },
                    {
                        "name": "zone",
                        "in": "path",
                        "description": "Zone where the server will be configured",
                        "required": true,
                        "example": "EXT"
                    }
                ],
                "responses": {
                    "200": {
                        "description": "Success",
                        "content": {
                            "application/json": {
                                "schema": {
                                    "properties": {
                                        "id": {
                                            "type": "integer",
                                            "example": "1"
                                        },
                                        "hostname": {
                                            "type": "string",
                                            "example": "Linux52"
                                        },
                                        "ip": {
                                            "type": "string",
                                            "example": "192.168.2.52"
                                        },
                                        "zone": {
                                            "type": "string",
                                            "example": "DMZ"
                                        }
                                    },
                                    "type": "object"
                                }
                            }
                        }
                    },
                    "401": {
                        "description": "User should provide a correct server Id",
                        "content": {
                            "application/json": {
                                "schema": {
                                    "properties": {
                                        "message": {
                                            "type": "string",
                                            "example": "the server id is not found"
                                        }
                                    },
                                    "type": "object"
                                }
                            }
                        }
                    }
                }
            }
        }
    }
}